{
	"projectid": "1109929701_qVote",
	"setting": {
		"urlCheck": true,
		"es6": true,
		"postcss": true,
		"minified": true,
		"newFeature": true,
		"autoAudits": true,
		"remoteDebugLogEnable": false,
		"uploadWithSourceMap": false,
		"nodeModules": true,
		"uglifyFileName": true
	},
	"compileType": "miniprogram",
	"createTime": 1573494446441,
	"accessTime": 1573494446441,
	"packOptions": {
		"ignore": []
	},
	"debugOptions": {
		"hidedInDevtools": []
	},
	"qqappid": "1109929701",
	"projectname": "qVote",
	"scripts": {
		"beforeCompile": "",
		"beforePreview": "",
		"beforeUpload": ""
	},
	"qqLibVersion": "1.1.7",
	"condition": {
		"search": {
			"current": -1,
			"list": []
		},
		"conversation": {
			"current": -1,
			"list": []
		},
		"game": {
			"list": []
		},
		"plugin": {
			"current": -1,
			"list": []
		},
		"gamePlugin": {
			"list": []
		},
		"miniprogram": {
			"current": -1,
			"list": [
				{
					"id": 0,
					"name": "shareMode",
					"pathName": "pages/vote/vote",
					"query": "sendid=ewrwrw34242&vid=a16639a0-742f-403a-8ab8-9778cdb8231d&choice=3&name=jianhua",
					"scene": "1007"
				}
			]
		}
	}
}